#FIG 3.2  Produced by xfig version 3.2.9
#encoding: UTF-8
Landscape
Center
Inches
Letter
59.00
Single
-2
1200 2
5 1 1 4 0 7 50 -1 -1 10.000 0 0 1 0 6525.000 4762.500 3525 2325 6675 900 9525 2325
	2 1 4.00 120.00 105.00
5 1 0 4 0 7 50 -1 -1 10.000 0 0 1 0 11133.346 11127.441 11025 10200 12000 11475 10200 11100
	2 1 4.00 120.00 105.00
5 1 0 4 0 7 50 -1 -1 10.000 0 0 1 0 6532.825 12451.321 7275 11925 6675 13350 5850 11850
	2 1 4.00 120.00 105.00
5 1 0 4 0 7 50 -1 -1 10.000 0 0 1 0 2273.864 11060.796 3225 11025 1875 11925 2100 10125
	2 1 4.00 120.00 105.00
1 3 0 1 0 7 50 -1 -1 0.000 1 0.0000 1800 6600 849 849 1800 6600 1200 6000
1 3 0 1 0 7 50 -1 -1 0.000 1 0.0000 10200 3000 849 849 10200 3000 9600 2400
1 3 0 1 0 7 50 -1 -1 0.000 1 0.0000 11400 6600 849 849 11400 6600 10800 6000
1 3 0 1 0 7 50 -1 -1 0.000 1 0.0000 10200 10200 849 849 10200 10200 9600 9600
1 3 0 1 0 7 50 -1 -1 0.000 1 0.0000 6600 11400 849 849 6600 11400 6000 10800
1 3 0 1 0 7 50 -1 -1 0.000 1 0.0000 3000 10200 849 849 3000 10200 2400 9600
1 3 0 1 0 7 50 -1 -1 0.000 1 0.0000 3000 3000 849 849 3000 3000 2400 2400
2 1 0 4 0 7 50 -1 -1 0.000 0 0 -1 1 0 2
	2 1 4.00 120.00 105.00
	 2625 9375 2100 7425
2 1 0 4 0 7 50 -1 -1 0.000 0 0 -1 1 0 2
	2 1 4.00 120.00 105.00
	 1800 5700 2700 3750
2 1 0 4 0 7 50 -1 -1 0.000 0 0 -1 1 0 2
	2 1 4.00 120.00 105.00
	 5775 11325 3750 10575
2 1 0 4 0 7 50 -1 -1 0.000 0 0 -1 1 0 2
	2 1 4.00 120.00 105.00
	 9525 10725 7425 11325
2 1 0 4 0 7 50 -1 -1 0.000 0 0 -1 1 0 2
	2 1 4.00 120.00 105.00
	 11325 7425 10575 9450
2 1 0 4 0 7 50 -1 -1 0.000 0 0 -1 1 0 2
	2 1 4.00 120.00 105.00
	 10575 3750 11250 5775
2 1 0 4 0 7 50 -1 -1 0.000 0 0 -1 1 0 2
	2 1 4.00 120.00 105.00
	 9450 9675 2625 6825
2 1 0 4 0 7 50 -1 -1 0.000 0 0 -1 1 0 2
	2 1 4.00 120.00 105.00
	 6225 10575 2400 7125
4 0 0 50 -1 2 24 0.0000 0 275 415 1500 6675 F0\001
4 0 0 50 -1 2 24 0.0000 0 275 430 2775 3075 F1\001
4 0 0 50 -1 2 24 0.0000 0 280 628 11175 6600 F48\001
4 0 0 50 -1 2 24 0.0000 0 280 627 9900 3075 F47\001
4 0 0 50 -1 2 24 0.0000 0 285 386 10050 10125 S0\001
4 0 0 50 -1 2 24 0.0000 0 285 401 6375 11325 S1\001
4 0 0 50 -1 2 24 0.0000 0 285 397 2850 10125 S2\001
4 0 0 50 -1 2 24 0.0000 0 285 2337 6000 1350 49 Fast States\001
